<?xml version="1.0" standalone="no"?>
<!DOCTYPE svg PUBLIC "-//W3C//DTD SVG 20010904//EN"
 "http://www.w3.org/TR/2001/REC-SVG-20010904/DTD/svg10.dtd">
<svg version="1.0" xmlns="http://www.w3.org/2000/svg"
 width="512.000000pt" height="512.000000pt" viewBox="0 0 512.000000 512.000000"
 preserveAspectRatio="xMidYMid meet">

<g transform="translate(0.000000,512.000000) scale(0.100000,-0.100000)"
fill="#000000" stroke="none">
<path d="M2380 4954 c-537 -51 -997 -242 -1386 -578 -441 -380 -717 -883 -810
-1478 -25 -158 -25 -518 0 -676 74 -473 259 -879 561 -1230 382 -445 916 -731
1515 -814 123 -17 478 -16 600 1 293 40 579 131 819 259 1112 591 1578 1920
1080 3079 -376 877 -1264 1454 -2219 1441 -69 0 -141 -3 -160 -4z m381 -324
c727 -74 1364 -520 1675 -1175 274 -577 270 -1236 -10 -1810 -431 -881 -1425
-1341 -2377 -1100 -284 72 -569 214 -794 396 -431 347 -709 863 -765 1418 -53
532 113 1087 451 1506 438 543 1131 834 1820 765z"/>
<path d="M2495 3826 c-16 -8 -186 -171 -377 -362 -375 -377 -370 -371 -353
-461 9 -49 69 -109 118 -118 85 -16 96 -9 314 208 l203 201 2 -956 c3 -948 3
-957 24 -984 39 -53 71 -69 134 -69 63 0 95 16 134 69 21 27 21 36 24 984 l2
956 203 -201 c218 -217 229 -224 314 -208 49 9 109 69 118 118 17 90 22 84
-353 461 -194 194 -361 354 -379 362 -40 17 -89 17 -128 0z"/>
</g>
</svg>
